<svg version="1.1" xmlns="http://www.w3.org/2000/svg" xmlns:xlink="http://www.w3.org/1999/xlink" x="0px" y="0px" viewBox="0 0 50 50" width="50px" height="50px" enable-background="new 0 0 50 50" preserveAspectRatio="none">
<path fill="#E08328" d="M31.6,9.2V0H7.7v42.3h26.8l7.8,7.7V9.2H31.6z M36.6,36.7H13.4v-31h12.7v9.1h10.5V36.7z"/>
</svg>
