<svg version="1.1" xmlns="http://www.w3.org/2000/svg" xmlns:xlink="http://www.w3.org/1999/xlink" x="0px" y="0px" viewBox="-1 3 46 46" width="46px" height="46px" enable-background="new -1 3 46 46" xml:space="preserve">
<path fill="#416E92" d="M22,3C9.3,3-1,13.3-1,26S9.3,49,22,49s23-10.3,23-23S34.7,3,22,3z M13,10h18v4H13V10z M31,30.6l-7-7V40h-4
	V23.7l-7,7l-2.8-2.8L20,18h4l9.8,9.8L31,30.6z"/>
</svg>
